{
  "name": "Lectura, expresión oral y escrita I",
  "image": "portada.jpg",
  "temas": [
    {
      "tema": "Introducción",
      "subtemas": [
        {
          "tema": "Legal",
          "url": "legal.html"
        },
        {
          "tema": "Presentación",
          "url": "presentacion.html"
        },       
        {
          "tema": "Primer parcial",
          "url": "index.html"
        },
        {
          "tema": "Transversalidad de los aprendizajes",
          "url": "aprendizajes.html"
        },
        {
          "tema": "Proyecto formativo",
          "url": "proyecto_formativo.html"
        },
        {
          "tema": "Actividad de motivación",
          "url": "actividad_de_motivacion.html"
        },
        {
          "tema": "Evaluación diagnóstica",
          "url": "evaluacion_diagnostica.html"
        }
      ]
    },
    {
      "tema": "Elaboración de un relato a partir de un texto",
      "subtemas": [
        {
          "tema": "Elaboración de un relato a partir de un texto",
          "url": "tema1.0.0.html"
        },
        {
          "tema": "Prototipos textuales de la redacción",
          "url": "tema1.1.0.html"
        },
        {
          "tema": "Actividad 1",
          "url": "tema1.1.1A1.html"
        },
        {
          "tema": "Actividad 2",
          "url": "tema1.1.1A2.html"
        },
        {
          "tema": "Actividad transversal",
          "url": "tema1.1.1A2_actividad_transversal.html"
        },
        {
          "tema": "Importancia de la comunicación y el lenguaje",
          "url": "tema1.2.0.html"
        },
        {
          "tema": "Actividad 3",
          "url": "tema1.2.0A3.html"
        },
        {
          "tema": "Tipos y funciones del lenguaje",
          "url": "tema1.3.0.html"
        },
        {
          "tema": "Actividad 4",
          "url": "tema1.3.0A4.html"
        },
        {
          "tema": "Funciones del lenguaje",
          "url": "tema1.4.0.html"
        },
        {
          "tema": "Actividad 5",
          "url": "tema1.4.0A5.html"
        },
        {
          "tema": "Actividad 6",
          "url": "tema1.4.0A6.html"
        },
        {
          "tema": "¿Qué es un millennial?",
          "url": "tema1.4.0A6_dhs.html"
        }

      ]
    },
    {
      "tema": "Uso de las clases de palabras en textos",
      "subtemas": [
        {
          "tema": "Uso de las clases de palabras en textos",
          "url": "tema2.0.0.html"
        },
        {
          "tema": "Sustantivo",
          "url": "tema2.1.0.html"
        },
        {
          "tema": "Actividad 7",
          "url": "tema2.1.0A7.html"
        },
        {
          "tema": "Adjetivo",
          "url": "tema2.2.0.html"
        },
        {
          "tema": "Actividad 8",
          "url": "tema2.2.0A8.html"
        },
        {
          "tema": "Pronombre",
          "url": "tema2.3.0.html"
        },
        {
          "tema": "Actividad 9",
          "url": "tema2.3.0A9.html"
        },
        {
          "tema": "Artículo",
          "url": "tema2.4.0.html"
        },
        {
          "tema": "Actividad 10",
          "url": "tema2.4.0A10.html"
        },
        {
          "tema": "Verbo",
          "url": "tema2.5.0.html"
        },
        {
          "tema": "Actividad 11",
          "url": "tema2.5.0A11.html"
        },
        {
          "tema": "Adverbio",
          "url": "tema2.6.0.html"
        },
        {
          "tema": "Actividad 12",
          "url": "tema2.6.0A12.html"
        },
        {
          "tema": "Preposición",
          "url": "tema2.7.0.html"
        },
        {
          "tema": "Actividad 13",
          "url": "tema2.7.0A13.html"
        },
        {
          "tema": "Conjunción",
          "url": "tema2.8.0.html"
        },
        {
          "tema": "Actividad 14",
          "url": "tema2.8.0A14.html"
        },
        {
          "tema": "Estructura de la oración",
          "url": "tema2.9.0.html"
        },
        {
          "tema": "Estructura del párrafo",
          "url": "tema2.10.0.html"
        },
        {
          "tema": "Tipos de párrafos",
          "url": "tema2.11.0.html"
        },
        {
          "tema": "Actividad 15",
          "url": "tema2.11.0A15.html"
        },
        {
          "tema": "Proyecto formativo",
          "url": "tema2.11.0A15_proyecto_formativo2.html"
        },
        {
          "tema": "Si existiera el “hubiera”",
          "url": "tema2.11.0A15_dhs.html"
        },
        {
          "tema": "Fomento a la lectura",
          "url": "tema2.11.0A15_lectura.html"
        },
        {
          "tema": "Evaluación formativa",
          "url": "tema2.11.0A15_evaluacion_formativa.html"
        },
        {
          "tema": "Proyecto formativo",
          "url": "tema2.11.0A15_proyecto_formativo3.html"
        },
        {
          "tema": "Oriéntate",
          "url": "tema2.11.0A15_orientate.html"
        },
        {
          "tema": "Registro de desarrollo de competencias",
          "url": "tema2.11.0A15_desarrollo_de_competencias.html"
        },
        {
          "tema": "Evaluación sumativa",
          "url": "tema2.11.0A15_evaluacion_sumativa.html"
        },
        {
          "tema": "Prueba tipo PLANEA",
          "url": "tema2.11.0A15_prueba_planea.html"
        }
      ]
    }
  ]
}